defentities/entity/PersonEntityITest.class
defentities/entity/UniqueConstraintITest.class
relentities/onetoone/entity/fk/OneToOneFkITest.class
defentities/entity/MafiaITest.class
relentities/manytomany/entity/withatt/ManyToManyWithAttTest.class
criteria/service/ProductServiceTest.class
relentities/onetoone/entity/spk/OneToOneSpkITest.class
entitypath/annotation/EntityGraphAnnotationTest.class
criteria/service/EmployeeServiceTest.class
defentities/entity/SystemUserEntityITest.class
entitypath/api/EntityGraphApiTest.class
relentities/manytomany/entity/noatt/ManyToManyNoAttTest.class
defentities/entity/UniqueColumnITest.class
